[
    {
        "originating_team": 21,
        "current_team": 21,
        "person_id": 536,
        "years": 3,
        "total_value": 8550000,
        "signing_date": "2018-07-01",
        "expiration_status": "UFA",
        "entry_level": false,
        "elc_slide": false,
        "active": true,
        "year_data": [
            { "season_id": 14, "nhl_salary": 3750000, "cap_hit": 2850000, "aav": 2825000 },
            { "season_id": 15, "nhl_salary": 2925000, "cap_hit": 2850000, "aav": 2825000 },
            { "season_id": 16, "nhl_salary": 1875000, "cap_hit": 2850000, "aav": 2825000 }
        ]
    },
    {
        "originating_team": 30,
        "current_team": 21,
        "person_id": 547,
        "years": 6,
        "total_value": 26000000,
        "signing_date": "2015-07-27",
        "expiration_status": "UFA",
        "entry_level": false, 
        "elc_slide": false,
        "active": true,
        "year_data": [
            { "season_id": 11, "signing_bonus": 1000000, "nhl_salary": 4000000, "cap_hit": 4333333, "aav": 4333333 },
            { "season_id": 12, "signing_bonus": 1000000, "nhl_salary": 4000000, "cap_hit": 4333333, "aav": 4333333 },
            { "season_id": 13, "nhl_salary": 5000000, "cap_hit": 4333333, "aav": 4333333 },
            { "season_id": 14, "nhl_salary": 5000000, "cap_hit": 4333333, "aav": 4333333 },
            { "season_id": 15, "nhl_salary": 3500000, "cap_hit": 4333333, "aav": 4333333 },
            { "season_id": 16, "nhl_salary": 2500000, "cap_hit": 4333333, "aav": 4333333 }
        ]
    },
    {
        "originating_team": 21,
        "current_team": 21,
        "person_id": 552,
        "years": 3,
        "total_value": 10000000,
        "signing_date": "2018-06-23",
        "expiration_status": "UFA",
        "entry_level": false, 
        "elc_slide": false,
        "active": true,
        "year_data": [
            { "season_id": 16, "nhl_salary": 2750000, "cap_hit": 3333333, "aav": 3333333 },
            { "season_id": 15, "nhl_salary": 3900000, "cap_hit": 3333333, "aav": 3333333 },
            { "season_id": 14, "nhl_salary": 3350000, "cap_hit": 3333333, "aav": 3333333 }
        ]
    },
    {
        "originating_team": 21,
        "current_team": 21,
        "person_id": 567,
        "years": 2,
        "total_value": 1450000,
        "signing_date": "2020-03-27",
        "expiration_status": "UFA",
        "entry_level": false, 
        "elc_slide": false,
        "active": true,
        "year_data": [
            { "season_id": 16, "nhl_salary": 700000, "minors_salary": 375000, "cap_hit": 725000, "aav": 725000 },
            { "season_id": 15, "nhl_salary": 750000, "minors_salary": 350000, "cap_hit": 725000, "aav": 725000 }
        ]
    },
    {
        "originating_team": 21,
        "current_team": 21,
        "person_id": 568,
        "years": 3,
        "total_value": 2775000,
        "signing_date": "2018-03-02",
        "expiration_status": "RFA",
        "entry_level": true, 
        "elc_slide": false,
        "active": true,
        "year_data": [
            { "season_id": 16, "nhl_salary": 832500, "performance_bonus": 920000, "signing_bonus": 92500, "minors_salary": 70000, "cap_hit": 880833, "aav": 2854166 },
            { "season_id": 15, "nhl_salary": 832500, "performance_bonus": 2500000, "signing_bonus": 92500, "minors_salary": 70000, "cap_hit": 880833, "aav": 2854166 },
            { "season_id": 14, "nhl_salary": 700000, "performance_bonus": 2500000, "signing_bonus": 92500, "minors_salary": 70000, "cap_hit": 880833, "aav": 2854166 }
        ]
    },
    {
        "originating_team": 21,
        "current_team": 21,
        "person_id": 568,
        "years": 3,
        "total_value": 2775000,
        "signing_date": "2018-03-02",
        "expiration_status": "RFA",
        "entry_level": true, 
        "elc_slide": false,
        "active": true,
        "year_data": [
            { "season_id": 16, "nhl_salary": 925000, "signing_bonus": 92500, "minors_salary": 70000, "cap_hit": 925000, "aav": 925000 },
            { "season_id": 15, "nhl_salary": 925000, "signing_bonus": 92500, "minors_salary": 70000, "cap_hit": 925000, "aav": 925000 },
            { "season_id": 14, "nhl_salary": 925000, "signing_bonus": 92500, "minors_salary": 70000, "cap_hit": 925000, "aav": 925000 }
        ]
    },
    {
        "originating_team": 21,
        "current_team": 17,
        "person_id": 550,
        "years": 2,
        "total_value": 6000000,
        "signing_date": "2019-07-01",
        "expiration_status": "UFA",
        "entry_level": false, 
        "elc_slide": false,
        "active": true,
        "year_data": [
            { "season_id": 16, "nhl_salary": 2800000, "cap_hit": 3000000, "aav": 3000000 },
            { "season_id": 15, "nhl_salary": 3200000, "cap_hit": 3000000, "aav": 3000000 }
        ]
    },
    {
        "originating_team": 21,
        "current_team": 21,
        "person_id": 556,
        "years": 3,
        "total_value": 9500000,
        "signing_date": "2020-10-12",
        "expiration_status": "UFA",
        "entry_level": false, 
        "elc_slide": false,
        "active": true,
        "year_data": [
            { "season_id": 16, "nhl_salary": 2500000, "cap_hit": 3166667, "aav": 3166667 },
            { "season_id": 17, "nhl_salary": 3000000, "cap_hit": 3166667, "aav": 3166667 },
            { "season_id": 18, "nhl_salary": 4000000, "cap_hit": 3166667, "aav": 3166667 }
        ]
    },
    {
        "originating_team": 21,
        "current_team": 21,
        "person_id": 563,
        "years": 4,
        "total_value": 16400000,
        "signing_date": "2020-10-27",
        "expiration_status": "UFA",
        "entry_level": false, 
        "elc_slide": false,
        "active": true,
        "year_data": [
            { "season_id": 16, "nhl_salary": 2350000, "cap_hit": 4100000, "aav": 4100000 },
            { "season_id": 17, "nhl_salary": 3550000, "cap_hit": 4100000, "aav": 4100000 },
            { "season_id": 18, "nhl_salary": 4600000, "cap_hit": 4100000, "aav": 4100000 },
            { "season_id": 19, "nhl_salary": 5900000, "cap_hit": 4100000, "aav": 4100000 }
        ]
    },
    {
        "originating_team": 21,
        "current_team": 21,
        "person_id": 566,
        "years": 7,
        "total_value": 35000000,
        "signing_date": "2019-07-31",
        "expiration_status": "UFA",
        "entry_level": false, 
        "elc_slide": false,
        "active": true,
        "year_data": [
            { "season_id": 16, "nhl_salary": 5000000, "cap_hit": 5000000, "aav": 5000000 },
            { "season_id": 17, "nhl_salary": 5000000, "cap_hit": 5000000, "aav": 5000000 },
            { "season_id": 18, "nhl_salary": 5000000, "cap_hit": 5000000, "aav": 5000000 },
            { "season_id": 19, "nhl_salary": 5000000, "cap_hit": 5000000, "aav": 5000000 },
            { "season_id": 20, "nhl_salary": 5000000, "cap_hit": 5000000, "aav": 5000000 },
            { "season_id": 21, "nhl_salary": 5000000, "cap_hit": 5000000, "aav": 5000000 },
            { "season_id": 22, "nhl_salary": 5000000, "cap_hit": 5000000, "aav": 5000000 }
        ]
    },
    {
        "originating_team": 21,
        "current_team": 21,
        "person_id": 555,
        "years": 1,
        "total_value": 700000,
        "signing_date": "2021-03-30",
        "expiration_status": "UFA",
        "entry_level": false, 
        "elc_slide": false,
        "active": true,
        "year_data": [
            { "season_id": 16, "nhl_salary": 700000, "cap_hit": 700000, "aav": 700000, "minors_salary": 160000 }
        ]
    },
    {
        "originating_team": 21,
        "current_team": 21,
        "person_id": 544,
        "years": 1,
        "total_value": 750000,
        "signing_date": "2020-10-09",
        "expiration_status": "RFA",
        "entry_level": false, 
        "elc_slide": false,
        "active": true,
        "year_data": [
            { "season_id": 16, "nhl_salary": 750000, "cap_hit": 750000, "aav": 750000, "minors_salary": 250000 }
        ]
    },
    {
        "originating_team": 21,
        "current_team": 21,
        "person_id": 565,
        "years": 1,
        "total_value": 874125,
        "signing_date": "2020-10-18",
        "expiration_status": "RFA",
        "entry_level": false, 
        "elc_slide": false,
        "active": true,
        "year_data": [
            { "season_id": 16, "nhl_salary": 874125, "cap_hit": 874125, "aav": 874125 }
        ]
    },
    {
        "originating_team": 21,
        "current_team": 16,
        "person_id": 548,
        "years": 1,
        "total_value": 1000000,
        "signing_date": "2020-12-26",
        "expiration_status": "UFA",
        "entry_level": false, 
        "elc_slide": false,
        "active": true,
        "year_data": [
            { "season_id": 16, "nhl_salary": 1000000, "cap_hit": 1000000, "aav": 1000000 }
        ]
    },
    {
        "originating_team": 21,
        "current_team": 21,
        "person_id": 561,
        "years": 2,
        "total_value": 3600000,
        "signing_date": "2019-07-01",
        "expiration_status": "UFA",
        "entry_level": false, 
        "elc_slide": false,
        "active": true,
        "year_data": [
            { "season_id": 15, "nhl_salary": 2200000, "cap_hit": 2150000, "aav": 1800000 },
            { "season_id": 16, "nhl_salary": 2800000, "cap_hit": 1450000, "aav": 1800000 }
        ]
    },
    {
        "originating_team": 21,
        "current_team": 21,
        "person_id": 560,
        "years": 2,
        "total_value": 5000000,
        "signing_date": "2020-10-10",
        "expiration_status": "UFA",
        "entry_level": false, 
        "elc_slide": false,
        "active": true,
        "year_data": [
            { "season_id": 16, "nhl_salary": 2200000, "cap_hit": 2500000, "aav": 2500000 },
            { "season_id": 17, "nhl_salary": 2800000, "cap_hit": 2500000, "aav": 2500000 }
        ]
    },
    {
        "originating_team": 21,
        "current_team": 21,
        "person_id": 558,
        "years": 4,
        "total_value": 14000000,
        "signing_date": "2019-07-17",
        "expiration_status": "UFA",
        "entry_level": false, 
        "elc_slide": false,
        "active": true,
        "year_data": [
            { "season_id": 15, "nhl_salary": 3400000, "cap_hit": 3500000, "aav": 3500000 },
            { "season_id": 16, "nhl_salary": 2600000, "cap_hit": 3500000, "aav": 3500000 },
            { "season_id": 17, "nhl_salary": 4500000, "cap_hit": 3500000, "aav": 3500000 },
            { "season_id": 18, "nhl_salary": 3500000, "cap_hit": 3500000, "aav": 3500000 }
        ]
    },
    {
        "originating_team": 21,
        "current_team": 21,
        "person_id": 551,
        "years": 4,
        "total_value": 15600000,
        "signing_date": "2019-07-01",
        "expiration_status": "UFA",
        "entry_level": false, 
        "elc_slide": false,
        "active": true,
        "year_data": [
            { "season_id": 15, "nhl_salary": 4900000, "cap_hit": 3900000, "aav": 3900000 },
            { "season_id": 16, "nhl_salary": 2900000, "cap_hit": 3900000, "aav": 3900000 },
            { "season_id": 17, "nhl_salary": 3900000, "cap_hit": 3900000, "aav": 3900000 },
            { "season_id": 18, "nhl_salary": 3900000, "cap_hit": 3900000, "aav": 3900000 }
        ]
    },
    {
        "originating_team": 10,
        "current_team": 21,
        "person_id": 549,
        "years": 7,
        "total_value": 27000000,
        "signing_date": "2016-04-13",
        "expiration_status": "UFA",
        "entry_level": false, 
        "elc_slide": false,
        "active": true,
        "year_data": [
            { "season_id": 12, "nhl_salary": 3000000, "signing_bonus": 2000000, "cap_hit": 4500000, "aav": 4500000 },
            { "season_id": 13, "nhl_salary": 3000000, "signing_bonus": 2000000, "cap_hit": 4500000, "aav": 4500000 },
            { "season_id": 14, "nhl_salary": 2500000, "signing_bonus": 2000000, "cap_hit": 4500000, "aav": 4500000 },
            { "season_id": 15, "nhl_salary": 2500000, "signing_bonus": 2000000, "cap_hit": 4500000, "aav": 4500000 },
            { "season_id": 16, "nhl_salary": 2000000, "signing_bonus": 2000000, "cap_hit": 4500000, "aav": 4500000 },
            { "season_id": 17, "nhl_salary": 2000000, "signing_bonus": 2000000, "cap_hit": 4500000, "aav": 4500000 }
        ]
    },
    {
        "originating_team": 21,
        "current_team": 21,
        "person_id": 557,
        "years": 2,
        "total_value": 9800000,
        "signing_date": "2020-10-10",
        "expiration_status": "UFA",
        "entry_level": false, 
        "elc_slide": false,
        "active": true,
        "year_data": [
            { "season_id": 16, "nhl_salary": 4400000, "cap_hit": 4900000, "aav": 4900000 },
            { "season_id": 17, "nhl_salary": 5400000, "cap_hit": 4900000, "aav": 4900000 }
        ]
    },
    {
        "originating_team": 29,
        "current_team": 21,
        "person_id": 553,
        "years": 6,
        "total_value": 3600000,
        "signing_date": "2015-07-03",
        "expiration_status": "UFA",
        "entry_level": false, 
        "elc_slide": false,
        "active": true,
        "year_data": [
            { "season_id": 11, "nhl_salary": 4000000, "cap_hit": 6000000, "aav": 6000000 },
            { "season_id": 12, "nhl_salary": 5750000, "cap_hit": 6000000, "aav": 6000000 },
            { "season_id": 13, "nhl_salary": 6250000, "cap_hit": 6000000, "aav": 6000000 },
            { "season_id": 14, "nhl_salary": 6750000, "cap_hit": 6000000, "aav": 6000000 },
            { "season_id": 15, "nhl_salary": 6750000, "cap_hit": 6000000, "aav": 6000000 },
            { "season_id": 16, "nhl_salary": 6500000, "cap_hit": 6000000, "aav": 6000000 }
        ]
    },
    {
        "originating_team": 21,
        "current_team": 21,
        "person_id": 554,
        "years": 7,
        "total_value": 39000000,
        "signing_date": "2013-08-16",
        "expiration_status": "UFA",
        "entry_level": false, 
        "elc_slide": false,
        "active": true,
        "year_data": [
            { "season_id": 10, "nhl_salary": 4500000, "cap_hit": 5571429, "aav": 5571429 },
            { "season_id": 11, "nhl_salary": 4550000, "cap_hit": 5571429, "aav": 5571429 },
            { "season_id": 12, "nhl_salary": 5550000, "cap_hit": 5571429, "aav": 5571429 },
            { "season_id": 13, "nhl_salary": 6000000, "cap_hit": 5571429, "aav": 5571429 },
            { "season_id": 14, "nhl_salary": 6000000, "cap_hit": 5571429, "aav": 5571429 },
            { "season_id": 15, "nhl_salary": 6000000, "cap_hit": 5571429, "aav": 5571429 },
            { "season_id": 16, "nhl_salary": 6500000, "cap_hit": 5571429, "aav": 5571429 }
        ]
    },
    {
        "originating_team": 21,
        "current_team": 21,
        "person_id": 559,
        "years": 7,
        "total_value": 44100000,
        "signing_date": "2016-07-08",
        "expiration_status": "UFA",
        "entry_level": false, 
        "elc_slide": false,
        "active": true,
        "year_data": [
            { "season_id": 12, "nhl_salary": 5000000, "cap_hit": 6300000, "aav": 6300000 },
            { "season_id": 13, "nhl_salary": 5750000, "cap_hit": 6300000, "aav": 6300000 },
            { "season_id": 14, "nhl_salary": 6750000, "cap_hit": 6300000, "aav": 6300000 },
            { "season_id": 15, "nhl_salary": 6750000, "cap_hit": 6300000, "aav": 6300000 },
            { "season_id": 16, "nhl_salary": 6150000, "cap_hit": 6300000, "aav": 6300000 },
            { "season_id": 17, "nhl_salary": 6850000, "cap_hit": 6300000, "aav": 6300000 },
            { "season_id": 18, "nhl_salary": 6850000, "cap_hit": 6300000, "aav": 6300000 }
        ]
    },
    {
        "originating_team": 21,
        "current_team": 21,
        "person_id": 564,
        "years": 6,
        "total_value": 55500000,
        "signing_date": "2019-09-28",
        "expiration_status": "UFA",
        "entry_level": false, 
        "elc_slide": false,
        "active": true,
        "year_data": [
            { "season_id": 15, "nhl_salary": 12000000, "cap_hit": 9250000, "aav": 9250000 },
            { "season_id": 16, "nhl_salary": 12000000, "cap_hit": 9250000, "aav": 9250000 },
            { "season_id": 17, "nhl_salary": 10000000, "cap_hit": 9250000, "aav": 9250000 },
            { "season_id": 18, "nhl_salary": 6000000, "cap_hit": 9250000, "aav": 9250000 },
            { "season_id": 19, "nhl_salary": 9500000, "cap_hit": 9250000, "aav": 9250000 },
            { "season_id": 20, "nhl_salary": 6000000, "cap_hit": 9250000, "aav": 9250000 }
        ]
    }
]
